[
    {
        "primitiveIdentifier": "OR2",
        "identifier": "OR_IMPL",
        "group": "OR_IMPL",
        "expression": "x | y",
        "biorep": {
            "response_function": {
                "type": "IMPLICIT_OR",
                "equation": "x",
                "parameters": {}
            },
            "particles": {}
        }
    },
    {
        "primitiveIdentifier": "NOT",
        "identifier": "NOT_0",
        "alternative_identifier": "A1_AmtR",
        "group": "A1_AmtR",
        "expression": "~x",
        "biorep": {
            "particles": {
                "K": []
            },
            "response_function": {
                "equation": "ymin+(ymax-ymin)/(1.0+(x/K)^n)",
                "parameters": {
                    "ymax": 3.8,
                    "ymin": 0.06,
                    "K": 0.07,
                    "n": 1.6
                },
                "type": "INHIBITORY_HILL_EQUATION"
            }
        }
    },
    {
        "primitiveIdentifier": "NOT",
        "identifier": "NOT_1",
        "alternative_identifier": "B1_BM3R1",
        "group": "B1_BM3R1",
        "expression": "~x",
        "biorep": {
            "particles": {
                "K": []
            },
            "response_function": {
                "equation": "ymin+(ymax-ymin)/(1.0+(x/K)^n)",
                "parameters": {
                    "ymax": 0.5,
                    "ymin": 0.004,
                    "K": 0.04,
                    "n": 3.4
                },
                "type": "INHIBITORY_HILL_EQUATION"
            }
        }
    },
    {
        "primitiveIdentifier": "NOT",
        "identifier": "NOT_2",
        "alternative_identifier": "B2_BM3R1",
        "group": "B2_BM3R1",
        "expression": "~x",
        "biorep": {
            "particles": {
                "K": []
            },
            "response_function": {
                "equation": "ymin+(ymax-ymin)/(1.0+(x/K)^n)",
                "parameters": {
                    "ymax": 0.5,
                    "ymin": 0.005,
                    "K": 0.15,
                    "n": 2.9
                },
                "type": "INHIBITORY_HILL_EQUATION"
            }
        }
    },
    {
        "primitiveIdentifier": "NOT",
        "identifier": "NOT_3",
        "alternative_identifier": "B3_BM3R1",
        "group": "B3_BM3R1",
        "expression": "~x",
        "biorep": {
            "particles": {
                "K": []
            },
            "response_function": {
                "equation": "ymin+(ymax-ymin)/(1.0+(x/K)^n)",
                "parameters": {
                    "ymax": 0.8,
                    "ymin": 0.01,
                    "K": 0.26,
                    "n": 3.4
                },
                "type": "INHIBITORY_HILL_EQUATION"
            }
        }
    },
    {
        "primitiveIdentifier": "NOT",
        "identifier": "NOT_4",
        "alternative_identifier": "E1_BetI",
        "group": "E1_BetI",
        "expression": "~x",
        "biorep": {
            "particles": {
                "K": []
            },
            "response_function": {
                "equation": "ymin+(ymax-ymin)/(1.0+(x/K)^n)",
                "parameters": {
                    "ymax": 3.8,
                    "ymin": 0.07,
                    "K": 0.41,
                    "n": 2.4
                },
                "type": "INHIBITORY_HILL_EQUATION"
            }
        }
    },
    {
        "primitiveIdentifier": "NOT",
        "identifier": "NOT_5",
        "alternative_identifier": "F1_AmeR",
        "group": "F1_AmeR",
        "expression": "~x",
        "biorep": {
            "particles": {
                "K": []
            },
            "response_function": {
                "equation": "ymin+(ymax-ymin)/(1.0+(x/K)^n)",
                "parameters": {
                    "ymax": 3.8,
                    "ymin": 0.2,
                    "K": 0.09,
                    "n": 1.4
                },
                "type": "INHIBITORY_HILL_EQUATION"
            }
        }
    },
    {
        "primitiveIdentifier": "NOT",
        "identifier": "NOT_6",
        "alternative_identifier": "H1_HlyIIR",
        "group": "H1_HlyIIR",
        "expression": "~x",
        "biorep": {
            "particles": {
                "K": []
            },
            "response_function": {
                "equation": "ymin+(ymax-ymin)/(1.0+(x/K)^n)",
                "parameters": {
                    "ymax": 2.5,
                    "ymin": 0.07,
                    "K": 0.19,
                    "n": 2.6
                },
                "type": "INHIBITORY_HILL_EQUATION"
            }
        }
    },
    {
        "primitiveIdentifier": "NOT",
        "identifier": "NOT_7",
        "alternative_identifier": "I1_IcaRA",
        "group": "I1_IcaRA",
        "expression": "~x",
        "biorep": {
            "particles": {
                "K": []
            },
            "response_function": {
                "equation": "ymin+(ymax-ymin)/(1.0+(x/K)^n)",
                "parameters": {
                    "ymax": 2.2,
                    "ymin": 0.08,
                    "K": 0.1,
                    "n": 1.4
                },
                "type": "INHIBITORY_HILL_EQUATION"
            }
        }
    },
    {
        "primitiveIdentifier": "NOT",
        "identifier": "NOT_8",
        "alternative_identifier": "L1_LitR",
        "group": "L1_LitR",
        "expression": "~x",
        "biorep": {
            "particles": {
                "K": []
            },
            "response_function": {
                "equation": "ymin+(ymax-ymin)/(1.0+(x/K)^n)",
                "parameters": {
                    "ymax": 4.3,
                    "ymin": 0.07,
                    "K": 0.05,
                    "n": 1.7
                },
                "type": "INHIBITORY_HILL_EQUATION"
            }
        }
    },
    {
        "primitiveIdentifier": "NOT",
        "identifier": "NOT_9",
        "alternative_identifier": "N1_LmrA",
        "group": "N1_LmrA",
        "expression": "~x",
        "biorep": {
            "particles": {
                "K": []
            },
            "response_function": {
                "equation": "ymin+(ymax-ymin)/(1.0+(x/K)^n)",
                "parameters": {
                    "ymax": 2.2,
                    "ymin": 0.2,
                    "K": 0.18,
                    "n": 2.1
                },
                "type": "INHIBITORY_HILL_EQUATION"
            }
        }
    },
    {
        "primitiveIdentifier": "NOT",
        "identifier": "NOT_10",
        "alternative_identifier": "P1_PhlF",
        "group": "P1_PhlF",
        "expression": "~x",
        "biorep": {
            "particles": {
                "K": []
            },
            "response_function": {
                "equation": "ymin+(ymax-ymin)/(1.0+(x/K)^n)",
                "parameters": {
                    "ymax": 3.9,
                    "ymin": 0.01,
                    "K": 0.03,
                    "n": 4.0
                },
                "type": "INHIBITORY_HILL_EQUATION"
            }
        }
    },
    {
        "primitiveIdentifier": "NOT",
        "identifier": "NOT_11",
        "alternative_identifier": "P2_PhlF",
        "group": "P2_PhlF",
        "expression": "~x",
        "biorep": {
            "particles": {
                "K": []
            },
            "response_function": {
                "equation": "ymin+(ymax-ymin)/(1.0+(x/K)^n)",
                "parameters": {
                    "ymax": 4.1,
                    "ymin": 0.02,
                    "K": 0.13,
                    "n": 3.9
                },
                "type": "INHIBITORY_HILL_EQUATION"
            }
        }
    },
    {
        "primitiveIdentifier": "NOT",
        "identifier": "NOT_12",
        "alternative_identifier": "P3_PhlF",
        "group": "P3_PhlF",
        "expression": "~x",
        "biorep": {
            "particles": {
                "K": []
            },
            "response_function": {
                "equation": "ymin+(ymax-ymin)/(1.0+(x/K)^n)",
                "parameters": {
                    "ymax": 6.8,
                    "ymin": 0.02,
                    "K": 0.23,
                    "n": 4.2
                },
                "type": "INHIBITORY_HILL_EQUATION"
            }
        }
    },
    {
        "primitiveIdentifier": "NOT",
        "identifier": "NOT_13",
        "alternative_identifier": "Q1_QacR",
        "group": "Q1_QacR",
        "expression": "~x",
        "biorep": {
            "particles": {
                "K": []
            },
            "response_function": {
                "equation": "ymin+(ymax-ymin)/(1.0+(x/K)^n)",
                "parameters": {
                    "ymax": 2.4,
                    "ymin": 0.01,
                    "K": 0.05,
                    "n": 2.7
                },
                "type": "INHIBITORY_HILL_EQUATION"
            }
        }
    },
    {
        "primitiveIdentifier": "NOT",
        "identifier": "NOT_14",
        "alternative_identifier": "Q2_QacR",
        "group": "Q2_QacR",
        "expression": "~x",
        "biorep": {
            "particles": {
                "K": []
            },
            "response_function": {
                "equation": "ymin+(ymax-ymin)/(1.0+(x/K)^n)",
                "parameters": {
                    "ymax": 2.8,
                    "ymin": 0.03,
                    "K": 0.21,
                    "n": 2.4
                },
                "type": "INHIBITORY_HILL_EQUATION"
            }
        }
    },
    {
        "primitiveIdentifier": "NOT",
        "identifier": "NOT_15",
        "alternative_identifier": "R1_PsrA",
        "group": "R1_PsrA",
        "expression": "~x",
        "biorep": {
            "particles": {
                "K": []
            },
            "response_function": {
                "equation": "ymin+(ymax-ymin)/(1.0+(x/K)^n)",
                "parameters": {
                    "ymax": 5.9,
                    "ymin": 0.2,
                    "K": 0.19,
                    "n": 1.8
                },
                "type": "INHIBITORY_HILL_EQUATION"
            }
        }
    },
    {
        "primitiveIdentifier": "NOT",
        "identifier": "NOT_16",
        "alternative_identifier": "S1_SrpR",
        "group": "S1_SrpR",
        "expression": "~x",
        "biorep": {
            "particles": {
                "K": []
            },
            "response_function": {
                "equation": "ymin+(ymax-ymin)/(1.0+(x/K)^n)",
                "parameters": {
                    "ymax": 1.3,
                    "ymin": 0.003,
                    "K": 0.01,
                    "n": 2.9
                },
                "type": "INHIBITORY_HILL_EQUATION"
            }
        }
    },
    {
        "primitiveIdentifier": "NOT",
        "identifier": "NOT_17",
        "alternative_identifier": "S2_SrpR",
        "group": "S2_SrpR",
        "expression": "~x",
        "biorep": {
            "particles": {
                "K": []
            },
            "response_function": {
                "equation": "ymin+(ymax-ymin)/(1.0+(x/K)^n)",
                "parameters": {
                    "ymax": 2.1,
                    "ymin": 0.003,
                    "K": 0.04,
                    "n": 2.6
                },
                "type": "INHIBITORY_HILL_EQUATION"
            }
        }
    },
    {
        "primitiveIdentifier": "NOT",
        "identifier": "NOT_18",
        "alternative_identifier": "S3_SrpR",
        "group": "S3_SrpR",
        "expression": "~x",
        "biorep": {
            "particles": {
                "K": []
            },
            "response_function": {
                "equation": "ymin+(ymax-ymin)/(1.0+(x/K)^n)",
                "parameters": {
                    "ymax": 2.1,
                    "ymin": 0.004,
                    "K": 0.06,
                    "n": 2.8
                },
                "type": "INHIBITORY_HILL_EQUATION"
            }
        }
    },
    {
        "primitiveIdentifier": "NOT",
        "identifier": "NOT_19",
        "alternative_identifier": "S4_SrpR",
        "group": "S4_SrpR",
        "expression": "~x",
        "biorep": {
            "particles": {
                "K": []
            },
            "response_function": {
                "equation": "ymin+(ymax-ymin)/(1.0+(x/K)^n)",
                "parameters": {
                    "ymax": 2.1,
                    "ymin": 0.007,
                    "K": 0.1,
                    "n": 2.8
                },
                "type": "INHIBITORY_HILL_EQUATION"
            }
        }
    },
    {
        "primitiveIdentifier": "NOR2",
        "identifier": "NOR2_0",
        "alternative_identifier": "A1_AmtR",
        "group": "A1_AmtR",
        "expression": "~(x|y)",
        "biorep": {
            "particles": {
                "K": []
            },
            "response_function": {
                "equation": "ymin+(ymax-ymin)/(1.0+(x/K)^n)",
                "parameters": {
                    "ymax": 3.8,
                    "ymin": 0.06,
                    "K": 0.07,
                    "n": 1.6
                },
                "type": "INHIBITORY_HILL_EQUATION"
            }
        }
    },
    {
        "primitiveIdentifier": "NOR2",
        "identifier": "NOR2_1",
        "alternative_identifier": "B1_BM3R1",
        "group": "B1_BM3R1",
        "expression": "~(x|y)",
        "biorep": {
            "particles": {
                "K": []
            },
            "response_function": {
                "equation": "ymin+(ymax-ymin)/(1.0+(x/K)^n)",
                "parameters": {
                    "ymax": 0.5,
                    "ymin": 0.004,
                    "K": 0.04,
                    "n": 3.4
                },
                "type": "INHIBITORY_HILL_EQUATION"
            }
        }
    },
    {
        "primitiveIdentifier": "NOR2",
        "identifier": "NOR2_2",
        "alternative_identifier": "B2_BM3R1",
        "group": "B2_BM3R1",
        "expression": "~(x|y)",
        "biorep": {
            "particles": {
                "K": []
            },
            "response_function": {
                "equation": "ymin+(ymax-ymin)/(1.0+(x/K)^n)",
                "parameters": {
                    "ymax": 0.5,
                    "ymin": 0.005,
                    "K": 0.15,
                    "n": 2.9
                },
                "type": "INHIBITORY_HILL_EQUATION"
            }
        }
    },
    {
        "primitiveIdentifier": "NOR2",
        "identifier": "NOR2_3",
        "alternative_identifier": "B3_BM3R1",
        "group": "B3_BM3R1",
        "expression": "~(x|y)",
        "biorep": {
            "particles": {
                "K": []
            },
            "response_function": {
                "equation": "ymin+(ymax-ymin)/(1.0+(x/K)^n)",
                "parameters": {
                    "ymax": 0.8,
                    "ymin": 0.01,
                    "K": 0.26,
                    "n": 3.4
                },
                "type": "INHIBITORY_HILL_EQUATION"
            }
        }
    },
    {
        "primitiveIdentifier": "NOR2",
        "identifier": "NOR2_4",
        "alternative_identifier": "E1_BetI",
        "group": "E1_BetI",
        "expression": "~(x|y)",
        "biorep": {
            "particles": {
                "K": []
            },
            "response_function": {
                "equation": "ymin+(ymax-ymin)/(1.0+(x/K)^n)",
                "parameters": {
                    "ymax": 3.8,
                    "ymin": 0.07,
                    "K": 0.41,
                    "n": 2.4
                },
                "type": "INHIBITORY_HILL_EQUATION"
            }
        }
    },
    {
        "primitiveIdentifier": "NOR2",
        "identifier": "NOR2_5",
        "alternative_identifier": "F1_AmeR",
        "group": "F1_AmeR",
        "expression": "~(x|y)",
        "biorep": {
            "particles": {
                "K": []
            },
            "response_function": {
                "equation": "ymin+(ymax-ymin)/(1.0+(x/K)^n)",
                "parameters": {
                    "ymax": 3.8,
                    "ymin": 0.2,
                    "K": 0.09,
                    "n": 1.4
                },
                "type": "INHIBITORY_HILL_EQUATION"
            }
        }
    },
    {
        "primitiveIdentifier": "NOR2",
        "identifier": "NOR2_6",
        "alternative_identifier": "H1_HlyIIR",
        "group": "H1_HlyIIR",
        "expression": "~(x|y)",
        "biorep": {
            "particles": {
                "K": []
            },
            "response_function": {
                "equation": "ymin+(ymax-ymin)/(1.0+(x/K)^n)",
                "parameters": {
                    "ymax": 2.5,
                    "ymin": 0.07,
                    "K": 0.19,
                    "n": 2.6
                },
                "type": "INHIBITORY_HILL_EQUATION"
            }
        }
    },
    {
        "primitiveIdentifier": "NOR2",
        "identifier": "NOR2_7",
        "alternative_identifier": "I1_IcaRA",
        "group": "I1_IcaRA",
        "expression": "~(x|y)",
        "biorep": {
            "particles": {
                "K": []
            },
            "response_function": {
                "equation": "ymin+(ymax-ymin)/(1.0+(x/K)^n)",
                "parameters": {
                    "ymax": 2.2,
                    "ymin": 0.08,
                    "K": 0.1,
                    "n": 1.4
                },
                "type": "INHIBITORY_HILL_EQUATION"
            }
        }
    },
    {
        "primitiveIdentifier": "NOR2",
        "identifier": "NOR2_8",
        "alternative_identifier": "L1_LitR",
        "group": "L1_LitR",
        "expression": "~(x|y)",
        "biorep": {
            "particles": {
                "K": []
            },
            "response_function": {
                "equation": "ymin+(ymax-ymin)/(1.0+(x/K)^n)",
                "parameters": {
                    "ymax": 4.3,
                    "ymin": 0.07,
                    "K": 0.05,
                    "n": 1.7
                },
                "type": "INHIBITORY_HILL_EQUATION"
            }
        }
    },
    {
        "primitiveIdentifier": "NOR2",
        "identifier": "NOR2_9",
        "alternative_identifier": "N1_LmrA",
        "group": "N1_LmrA",
        "expression": "~(x|y)",
        "biorep": {
            "particles": {
                "K": []
            },
            "response_function": {
                "equation": "ymin+(ymax-ymin)/(1.0+(x/K)^n)",
                "parameters": {
                    "ymax": 2.2,
                    "ymin": 0.2,
                    "K": 0.18,
                    "n": 2.1
                },
                "type": "INHIBITORY_HILL_EQUATION"
            }
        }
    },
    {
        "primitiveIdentifier": "NOR2",
        "identifier": "NOR2_10",
        "alternative_identifier": "P1_PhlF",
        "group": "P1_PhlF",
        "expression": "~(x|y)",
        "biorep": {
            "particles": {
                "K": []
            },
            "response_function": {
                "equation": "ymin+(ymax-ymin)/(1.0+(x/K)^n)",
                "parameters": {
                    "ymax": 3.9,
                    "ymin": 0.01,
                    "K": 0.03,
                    "n": 4.0
                },
                "type": "INHIBITORY_HILL_EQUATION"
            }
        }
    },
    {
        "primitiveIdentifier": "NOR2",
        "identifier": "NOR2_11",
        "alternative_identifier": "P2_PhlF",
        "group": "P2_PhlF",
        "expression": "~(x|y)",
        "biorep": {
            "particles": {
                "K": []
            },
            "response_function": {
                "equation": "ymin+(ymax-ymin)/(1.0+(x/K)^n)",
                "parameters": {
                    "ymax": 4.1,
                    "ymin": 0.02,
                    "K": 0.13,
                    "n": 3.9
                },
                "type": "INHIBITORY_HILL_EQUATION"
            }
        }
    },
    {
        "primitiveIdentifier": "NOR2",
        "identifier": "NOR2_12",
        "alternative_identifier": "P3_PhlF",
        "group": "P3_PhlF",
        "expression": "~(x|y)",
        "biorep": {
            "particles": {
                "K": []
            },
            "response_function": {
                "equation": "ymin+(ymax-ymin)/(1.0+(x/K)^n)",
                "parameters": {
                    "ymax": 6.8,
                    "ymin": 0.02,
                    "K": 0.23,
                    "n": 4.2
                },
                "type": "INHIBITORY_HILL_EQUATION"
            }
        }
    },
    {
        "primitiveIdentifier": "NOR2",
        "identifier": "NOR2_13",
        "alternative_identifier": "Q1_QacR",
        "group": "Q1_QacR",
        "expression": "~(x|y)",
        "biorep": {
            "particles": {
                "K": []
            },
            "response_function": {
                "equation": "ymin+(ymax-ymin)/(1.0+(x/K)^n)",
                "parameters": {
                    "ymax": 2.4,
                    "ymin": 0.01,
                    "K": 0.05,
                    "n": 2.7
                },
                "type": "INHIBITORY_HILL_EQUATION"
            }
        }
    },
    {
        "primitiveIdentifier": "NOR2",
        "identifier": "NOR2_14",
        "alternative_identifier": "Q2_QacR",
        "group": "Q2_QacR",
        "expression": "~(x|y)",
        "biorep": {
            "particles": {
                "K": []
            },
            "response_function": {
                "equation": "ymin+(ymax-ymin)/(1.0+(x/K)^n)",
                "parameters": {
                    "ymax": 2.8,
                    "ymin": 0.03,
                    "K": 0.21,
                    "n": 2.4
                },
                "type": "INHIBITORY_HILL_EQUATION"
            }
        }
    },
    {
        "primitiveIdentifier": "NOR2",
        "identifier": "NOR2_15",
        "alternative_identifier": "R1_PsrA",
        "group": "R1_PsrA",
        "expression": "~(x|y)",
        "biorep": {
            "particles": {
                "K": []
            },
            "response_function": {
                "equation": "ymin+(ymax-ymin)/(1.0+(x/K)^n)",
                "parameters": {
                    "ymax": 5.9,
                    "ymin": 0.2,
                    "K": 0.19,
                    "n": 1.8
                },
                "type": "INHIBITORY_HILL_EQUATION"
            }
        }
    },
    {
        "primitiveIdentifier": "NOR2",
        "identifier": "NOR2_16",
        "alternative_identifier": "S1_SrpR",
        "group": "S1_SrpR",
        "expression": "~(x|y)",
        "biorep": {
            "particles": {
                "K": []
            },
            "response_function": {
                "equation": "ymin+(ymax-ymin)/(1.0+(x/K)^n)",
                "parameters": {
                    "ymax": 1.3,
                    "ymin": 0.003,
                    "K": 0.01,
                    "n": 2.9
                },
                "type": "INHIBITORY_HILL_EQUATION"
            }
        }
    },
    {
        "primitiveIdentifier": "NOR2",
        "identifier": "NOR2_17",
        "alternative_identifier": "S2_SrpR",
        "group": "S2_SrpR",
        "expression": "~(x|y)",
        "biorep": {
            "particles": {
                "K": []
            },
            "response_function": {
                "equation": "ymin+(ymax-ymin)/(1.0+(x/K)^n)",
                "parameters": {
                    "ymax": 2.1,
                    "ymin": 0.003,
                    "K": 0.04,
                    "n": 2.6
                },
                "type": "INHIBITORY_HILL_EQUATION"
            }
        }
    },
    {
        "primitiveIdentifier": "NOR2",
        "identifier": "NOR2_18",
        "alternative_identifier": "S3_SrpR",
        "group": "S3_SrpR",
        "expression": "~(x|y)",
        "biorep": {
            "particles": {
                "K": []
            },
            "response_function": {
                "equation": "ymin+(ymax-ymin)/(1.0+(x/K)^n)",
                "parameters": {
                    "ymax": 2.1,
                    "ymin": 0.004,
                    "K": 0.06,
                    "n": 2.8
                },
                "type": "INHIBITORY_HILL_EQUATION"
            }
        }
    },
    {
        "primitiveIdentifier": "NOR2",
        "identifier": "NOR2_19",
        "alternative_identifier": "S4_SrpR",
        "group": "S4_SrpR",
        "expression": "~(x|y)",
        "biorep": {
            "particles": {
                "K": []
            },
            "response_function": {
                "equation": "ymin+(ymax-ymin)/(1.0+(x/K)^n)",
                "parameters": {
                    "ymax": 2.1,
                    "ymin": 0.007,
                    "K": 0.1,
                    "n": 2.8
                },
                "type": "INHIBITORY_HILL_EQUATION"
            }
        }
    }
]