{
 "23,8" : {"creator":"JGraphT JSON Exporter","version":"1","nodes":[{"id":"a","expression":"a","primitiveIdentifier":"","type":"INPUT"},{"id":"b","expression":"b","primitiveIdentifier":"","type":"INPUT"},{"id":"c","expression":"c","primitiveIdentifier":"","type":"INPUT"},{"id":"YFP","expression":"x | y","primitiveIdentifier":"OR2","type":"LOGIC"},{"id":"F1_AmeR","expression":"~x","primitiveIdentifier":"NOT","type":"LOGIC"},{"id":"P1_PhlF","expression":"~x","primitiveIdentifier":"NOT","type":"LOGIC"},{"id":"S3_SrpR","expression":"~(x | y)","primitiveIdentifier":"NOR2","type":"LOGIC"},{"id":"E1_BetI","expression":"~(x | y)","primitiveIdentifier":"NOR2","type":"LOGIC"},{"id":"H1_HlyIIR","expression":"~(x | y)","primitiveIdentifier":"NOR2","type":"LOGIC"},{"id":"O","expression":"x","primitiveIdentifier":"","type":"OUTPUT"}],"edges":[{"id":"1","source":"b","target":"F1_AmeR","variable":"x"},{"id":"2","source":"F1_AmeR","target":"E1_BetI","variable":"x"},{"id":"3","source":"P1_PhlF","target":"E1_BetI","variable":"y"},{"id":"4","source":"b","target":"S3_SrpR","variable":"x"},{"id":"5","source":"a","target":"S3_SrpR","variable":"y"},{"id":"6","source":"S3_SrpR","target":"YFP","variable":"x"},{"id":"7","source":"H1_HlyIIR","target":"YFP","variable":"y"},{"id":"8","source":"c","target":"H1_HlyIIR","variable":"x"},{"id":"9","source":"E1_BetI","target":"H1_HlyIIR","variable":"y"},{"id":"10","source":"a","target":"P1_PhlF","variable":"x"},{"id":"11","source":"YFP","target":"O","variable":"x"}]}
}
